{
	"additionalNodes": [],
	"additionalParameters": {
		"root": {
			"height": 128,
			"width": 216
		}
	},
	"inputs": [ {
		"command": "Variable",
		"name": "fark"
	}, {
		"command": "Variable",
		"name": "lineInfo"
	} ],
	"outputs": [],
	"properties": {
		"0pZ0RGdznBlZGKNy3g8yQENvNMuSWiC9": {
			"height": 60,
			"title": "sequence",
			"width": 143,
			"x": 543,
			"y": -3
		},
		"3kBa4MX3EqghkoBrXvrLtwwpIutO0lyz": {
			"height": 92,
			"title": "store",
			"width": 408,
			"x": 1601,
			"y": 69
		},
		"41Xn99qu53SMBq3mUcSp6YI86zu3cnSR": {
			"height": 92,
			"title": "store",
			"width": 131,
			"x": 1604,
			"y": 339
		},
		"9XmS1uOM8IpooCrCazY8uFDThho9SzOG": {
			"height": 90,
			"title": "luaCondition",
			"width": 231,
			"x": 262,
			"y": 13
		},
		"9g4lqcsIMBbHLSA2fDuXV9ROFwlXQJBv": {
			"height": 91,
			"title": "luaCondition",
			"width": 345,
			"x": 913,
			"y": -9
		},
		"CTVHRjzhaEN9o0zVuQrXkkVSAUEFpATY": {
			"height": 54,
			"title": "success",
			"width": 132,
			"x": 546,
			"y": 58
		},
		"CbvcAcW0xsyJVcl8bYEvEobymsf8OQLU": {
			"height": 92,
			"title": "store",
			"width": 408,
			"x": 1601,
			"y": 161
		},
		"PxevOcEyhv4VlHvSIGMLzRia4ng49ikk": {
			"height": 92,
			"title": "store",
			"width": 174,
			"x": 739,
			"y": -96
		},
		"XaquGTO4tS9bMxm5F754E8Y8AWA7NxLT": {
			"height": 60,
			"title": "Collect units",
			"width": 158,
			"x": 1313,
			"y": 169
		},
		"lfBFIyi9npbYLQLtJXg0GGSg4oMtEjoB": {
			"height": 114,
			"title": "nota_zavorka_exam.CollectFeatures",
			"width": 397,
			"x": 1599,
			"y": -139
		},
		"qnosT5xehvNgzEBnRnijYkpEeVNXUW0p": {
			"height": 94,
			"title": "store",
			"width": 429,
			"x": 1603,
			"y": -24
		},
		"yMmePTgE2Ar0m6Uu25AvZWduqIRX0s1X": {
			"height": 60,
			"title": "Collect trash",
			"width": 161,
			"x": 1319,
			"y": -32
		},
		"yNCn6ogEoopGfHG2mJEbii86474EXjOS": {
			"height": 60,
			"title": "repeat",
			"width": 131,
			"x": 744,
			"y": 2
		},
		"yzV2cqLYaK6QBp3yyoRwFhgiz8jHvDSR": {
			"height": 92,
			"title": "nota_zavorka_exam.CollectUnit",
			"width": 177,
			"x": 1600,
			"y": 250
		}
	},
	"roles": [ {
		"categories": [],
		"name": "Role 0"
	} ],
	"root": {
		"children": [ {
			"children": [ {
				"children": [],
				"id": "PxevOcEyhv4VlHvSIGMLzRia4ng49ikk",
				"nodeType": "luaCommand",
				"parameters": [ {
					"name": "var",
					"value": "currentLinePoint"
				}, {
					"name": "value",
					"value": "5"
				}, {
					"name": "scriptName",
					"value": "store"
				} ],
				"scriptName": "store"
			}, {
				"children": [ {
					"children": [ {
						"children": [ {
							"children": [],
							"id": "lfBFIyi9npbYLQLtJXg0GGSg4oMtEjoB",
							"nodeType": "luaCommand",
							"parameters": [ {
								"name": "collector",
								"value": "fark"
							}, {
								"name": "position",
								"value": "lineInfo[\"points\"][currentLinePoint][\"position\"]"
							}, {
								"name": "radius",
								"value": "nota_zavorka_exam.GetFarkRadius(lineInfo,currentLinePoint)"
							}, {
								"name": "scriptName",
								"value": "nota_zavorka_exam.CollectFeatures"
							} ],
							"scriptName": "nota_zavorka_exam.CollectFeatures"
						}, {
							"children": [],
							"id": "qnosT5xehvNgzEBnRnijYkpEeVNXUW0p",
							"nodeType": "luaCommand",
							"parameters": [ {
								"name": "var",
								"value": "currentLinePoint"
							}, {
								"name": "value",
								"value": "nota_zavorka_exam.UpdateFarkLinePoint(lineInfo,currentLinePoint)"
							}, {
								"name": "scriptName",
								"value": "store"
							} ],
							"scriptName": "store"
						} ],
						"id": "yMmePTgE2Ar0m6Uu25AvZWduqIRX0s1X",
						"nodeType": "sequence",
						"parameters": []
					}, {
						"children": [ {
							"children": [],
							"id": "3kBa4MX3EqghkoBrXvrLtwwpIutO0lyz",
							"nodeType": "luaCommand",
							"parameters": [ {
								"name": "var",
								"value": "target"
							}, {
								"name": "value",
								"value": "lineInfo[\"unitsToCollect\"][#lineInfo[\"unitsToCollect\"]]"
							}, {
								"name": "scriptName",
								"value": "store"
							} ],
							"scriptName": "store"
						}, {
							"children": [],
							"id": "CbvcAcW0xsyJVcl8bYEvEobymsf8OQLU",
							"nodeType": "luaCommand",
							"parameters": [ {
								"name": "var",
								"value": "lineInfo[\"unitsToCollect\"][#lineInfo[\"unitsToCollect\"]]"
							}, {
								"name": "value",
								"value": "nil"
							}, {
								"name": "scriptName",
								"value": "store"
							} ],
							"scriptName": "store"
						}, {
							"children": [],
							"id": "yzV2cqLYaK6QBp3yyoRwFhgiz8jHvDSR",
							"nodeType": "luaCommand",
							"parameters": [ {
								"name": "collector",
								"value": "fark"
							}, {
								"name": "unit",
								"value": "target"
							}, {
								"name": "scriptName",
								"value": "nota_zavorka_exam.CollectUnit"
							} ],
							"scriptName": "nota_zavorka_exam.CollectUnit"
						}, {
							"children": [],
							"id": "41Xn99qu53SMBq3mUcSp6YI86zu3cnSR",
							"nodeType": "luaCommand",
							"parameters": [ {
								"name": "var",
								"value": "target"
							}, {
								"name": "value",
								"value": "nil"
							}, {
								"name": "scriptName",
								"value": "store"
							} ],
							"scriptName": "store"
						} ],
						"id": "XaquGTO4tS9bMxm5F754E8Y8AWA7NxLT",
						"nodeType": "sequence",
						"parameters": []
					} ],
					"id": "9g4lqcsIMBbHLSA2fDuXV9ROFwlXQJBv",
					"nodeType": "luaCondition",
					"parameters": [ {
						"name": "expression",
						"value": "#lineInfo[\"unitsToCollect\"] == 0 and target == nil"
					}, {
						"name": "repeat",
						"value": "true"
					} ]
				} ],
				"id": "yNCn6ogEoopGfHG2mJEbii86474EXjOS",
				"nodeType": "repeat",
				"parameters": []
			} ],
			"id": "0pZ0RGdznBlZGKNy3g8yQENvNMuSWiC9",
			"nodeType": "sequence",
			"parameters": []
		}, {
			"children": [],
			"id": "CTVHRjzhaEN9o0zVuQrXkkVSAUEFpATY",
			"nodeType": "success",
			"parameters": []
		} ],
		"id": "9XmS1uOM8IpooCrCazY8uFDThho9SzOG",
		"nodeType": "luaCondition",
		"parameters": [ {
			"name": "expression",
			"value": "Spring.ValidUnitID(fark)"
		}, {
			"name": "repeat",
			"value": "true"
		} ]
	}
}